STA 313 – Visualizing geospatial data II
…
nc <- read_sf("data/nc_counties/", quiet = TRUE)
air <- read_sf("data/airports/", quiet = TRUE)
hwy <- read_sf("data/us_interstates/", quiet = TRUE)

NC Counties

nc

Simple feature collection with 100 features and 8 fields
Geometry type: MULTIPOLYGON
Dimension:     XY
Bounding box:  xmin: -84.32186 ymin: 33.84175 xmax: -75.46003 ymax: 36.58815
Geodetic CRS:  NAD83
# A tibble: 100 × 9
     AREA PERIMETER COUNTYP010 STATE COUNTY          FIPS  STATE_FIPS SQUARE_MIL
    <dbl>     <dbl>      <dbl> <chr> <chr>           <chr> <chr>           <dbl>
 1 0.112       1.61       1994 NC    Ashe County     37009 37               429.
 2 0.0616      1.35       1996 NC    Alleghany Coun… 37005 37               236.
 3 0.140       1.77       1998 NC    Surry County    37171 37               539.
 4 0.0891      1.43       1999 NC    Gates County    37073 37               342.
 5 0.0687      4.43       2000 NC    Currituck Coun… 37053 37               264.
 6 0.119       1.40       2001 NC    Stokes County   37169 37               456.
 7 0.0626      2.11       2002 NC    Camden County   37029 37               241.
 8 0.115       1.46       2003 NC    Warren County   37185 37               444.
 9 0.143       2.40       2004 NC    Northampton Co… 37131 37               551.
10 0.0925      1.81       2005 NC    Hertford County 37091 37               356.
# ℹ 90 more rows
# ℹ 1 more variable: geometry <MULTIPOLYGON [°]>

US Airports

air

Simple feature collection with 940 features and 16 fields
Geometry type: POINT
Dimension:     XY
Bounding box:  xmin: -176.646 ymin: 17.70156 xmax: -64.80172 ymax: 71.28545
Geodetic CRS:  NAD83
# A tibble: 940 × 17
   AIRPRTX010 FEATURE ICAO  IATA  AIRPT_NAME CITY  STATE STATE_FIPS COUNTY FIPS 
        <dbl> <chr>   <chr> <chr> <chr>      <chr> <chr> <chr>      <chr>  <chr>
 1          0 AIRPORT KGON  GON   GROTON-NE… GROT… CT    09         NEW L… 09011
 2          3 AIRPORT K6S5  6S5   RAVALLI C… HAMI… MT    30         RAVAL… 30081
 3          4 AIRPORT KMHV  MHV   MOJAVE AI… MOJA… CA    06         KERN   06029
 4          6 AIRPORT KSEE  SEE   GILLESPIE… SAN … CA    06         SAN D… 06073
 5          7 AIRPORT KFPR  FPR   ST LUCIE … FORT… FL    12         ST LU… 12111
 6          8 AIRPORT KRYY  RYY   COBB COUN… ATLA… GA    13         COBB   13067
 7         10 AIRPORT KMKL  MKL   MC KELLAR… JACK… TN    47         MADIS… 47113
 8         11 AIRPORT KCCR  CCR   BUCHANAN … CONC… CA    06         CONTR… 06013
 9         13 AIRPORT KJYO  JYO   LEESBURG … LEES… VA    51         LOUDO… 51107
10         15 AIRPORT KCAD  CAD   WEXFORD C… CADI… MI    26         WEXFO… 26165
# ℹ 930 more rows
# ℹ 7 more variables: TOT_ENP <dbl>, LATITUDE <dbl>, LONGITUDE <dbl>,
#   ELEV <dbl>, ACT_DATE <chr>, CNTL_TWR <chr>, geometry <POINT [°]>

US highways

hwy

Simple feature collection with 233 features and 3 fields
Geometry type: MULTILINESTRING
Dimension:     XY
Bounding box:  xmin: -7472582 ymin: 2911107 xmax: 2443707 ymax: 8208428
Projected CRS: NAD83 / UTM zone 15N
# A tibble: 233 × 4
   ROUTE_NUM DIST_MILES DIST_KM                                         geometry
   <chr>          <dbl>   <dbl>                            <MULTILINESTRING [m]>
 1 I10          2449.   3941.   ((-1881200 4072307, -1879922 4072943, -1877750 …
 2 I105           20.8    33.4  ((-1910156 5339585, -1910139 5339705, -1909706 …
 3 I110           41.4    66.6  ((1054139 3388879, 1054287 3385988, 1054967 338…
 4 I115            1.58    2.55 ((-1013796 5284243, -1013138 5283839, -1012546 …
 5 I12            85.3   137.   ((680741.7 3366581, 682709.8 3366521, 683440.5 …
 6 I124            1.73    2.79 ((1201467 3906285, 1201643 3905927, 1201658 390…
 7 I126            3.56    5.72 ((1601502 3829718, 1602136 3829053, 1602406 382…
 8 I129            3.1     4.99 ((217446 4705389, 217835.1 4705377, 219243.7 47…
 9 I135           96.3   155.   ((96922.97 4313125, 96561.85 4310056, 96655.33 …
10 I15          1436.   2311    ((-882875.7 5602902, -882998.3 5602422, -883277…
# ℹ 223 more rows
…
