STA 313 – Visualizing geospatial data I
…
gc <- geosphere::gcIntermediate(
  p1 = cities |> filter(city == "istanbul")    |> select(-city), 
  p2 = cities |> filter(city == "los angeles") |> select(-city), 
  n = 100, 
  addStartEnd = TRUE
  ) |>
  as_tibble()

Intermediate points on the great circle

gc

# A tibble: 102 × 2
     lon   lat
   <dbl> <dbl>
 1  29.0  41.0
 2  28.4  41.9
 3  27.8  42.8
 4  27.1  43.6
 5  26.5  44.5
 6  25.8  45.3
 7  25.1  46.2
 8  24.4  47.0
 9  23.7  47.9
10  22.9  48.7
# ℹ 92 more rows
…
Bias warning

“Freedom Index” from any source have potential bias and is prone to miscalculations. While the index appears to cover many social issues including freedom of religion, expression, etc. this data (like any data) should be approached with skepticism. Quantifying complex issues like these is difficult and the process can oversimplify difficult to record/measure political nuances.

Source: https://freedomhouse.org/report/freedom-world

Data

freedom <- read_csv("data/freedom-2022.csv", na = c("", "-")) |>
  drop_na()

freedom

# A tibble: 195 × 4
   country                pr    cl status
   <chr>               <dbl> <dbl> <chr> 
 1 Afghanistan             7     7 NF    
 2 Albania                 3     3 PF    
 3 Algeria                 6     5 NF    
 4 Andorra                 1     1 F     
 5 Angola                  6     5 NF    
 6 Antigua and Barbuda     2     2 F     
 7 Argentina               2     2 F     
 8 Armenia                 4     4 PF    
 9 Australia               1     1 F     
10 Austria                 1     1 F     
# ℹ 185 more rows
…
Obtain country boundaries and store as a data frame

Join the freedom and country boundaries data frames

Plot the country boundaries, and fill by freedom scores

map_data()

The map_data() function easily turns data from the maps package in to a data frame suitable for plotting with ggplot2:

world_map <- map_data("world") |> as_tibble()
world_map

# A tibble: 99,338 × 6
    long   lat group order region subregion
   <dbl> <dbl> <dbl> <int> <chr>  <chr>    
 1 -69.9  12.5     1     1 Aruba  <NA>     
 2 -69.9  12.4     1     2 Aruba  <NA>     
 3 -69.9  12.4     1     3 Aruba  <NA>     
 4 -70.0  12.5     1     4 Aruba  <NA>     
 5 -70.1  12.5     1     5 Aruba  <NA>     
 6 -70.1  12.6     1     6 Aruba  <NA>     
 7 -70.0  12.6     1     7 Aruba  <NA>     
 8 -70.0  12.6     1     8 Aruba  <NA>     
 9 -69.9  12.5     1     9 Aruba  <NA>     
10 -69.9  12.5     1    10 Aruba  <NA>     
# ℹ 99,328 more rows
…
Freedom and world map

freedom |> select(country)

# A tibble: 195 × 1
   country            
   <chr>              
 1 Afghanistan        
 2 Albania            
 3 Algeria            
 4 Andorra            
 5 Angola             
 6 Antigua and Barbuda
 7 Argentina          
 8 Armenia            
 9 Australia          
10 Austria            
# ℹ 185 more rows

world_map |> select(region)

# A tibble: 99,338 × 1
   region
   <chr> 
 1 Aruba 
 2 Aruba 
 3 Aruba 
 4 Aruba 
 5 Aruba 
 6 Aruba 
 7 Aruba 
 8 Aruba 
 9 Aruba 
10 Aruba 
# ℹ 99,328 more rows
…
Daily US vaccine data by state

us_state_vaccinations <- read_csv(here::here("data/us_state_vaccinations.csv")) |>
  mutate(date = mdy(date)) |>
  filter(year(date) == 2021)

us_state_vaccinations

# A tibble: 22,936 × 16
   date       location total_vaccinations total_distributed people_vaccinated
   <date>     <chr>                 <dbl>             <dbl>             <dbl>
 1 2021-01-12 Alabama               78134            377025             70861
 2 2021-01-13 Alabama               84040            378975             74792
 3 2021-01-14 Alabama               92300            435350             80480
 4 2021-01-15 Alabama              100567            444650             86956
 5 2021-01-16 Alabama                  NA                NA                NA
 6 2021-01-17 Alabama                  NA                NA                NA
 7 2021-01-18 Alabama                  NA                NA                NA
 8 2021-01-19 Alabama              130795            444650            114319
 9 2021-01-20 Alabama              139200            483275            121113
10 2021-01-21 Alabama              165919            493125            144429
# ℹ 22,926 more rows
# ℹ 11 more variables: people_fully_vaccinated_per_hundred <dbl>,
#   total_vaccinations_per_hundred <dbl>, people_fully_vaccinated <dbl>,
#   people_vaccinated_per_hundred <dbl>, distributed_per_hundred <dbl>,
#   daily_vaccinations_raw <dbl>, daily_vaccinations <dbl>,
#   daily_vaccinations_per_million <dbl>, share_doses_used <dbl>,
#   total_boosters <dbl>, total_boosters_per_hundred <dbl>
…
Bring in 2020 Presidential election results

election_2020 <- read_csv(here::here("data/us-election-2020.csv"))

election_2020

# A tibble: 51 × 5
   state                electoal_votes biden trump win       
   <chr>                         <dbl> <dbl> <dbl> <chr>     
 1 Alabama                           9     0     9 Republican
 2 Alaska                            3     0     3 Republican
 3 Arizona                          11    11     0 Democrat  
 4 Arkansas                          6     0     6 Republican
 5 California                       55    55     0 Democrat  
 6 Colorado                          9     9     0 Democrat  
 7 Connecticut                       7     7     0 Democrat  
 8 Delaware                          3     3     0 Democrat  
 9 District of Columbia              3     3     0 Democrat  
10 Florida                          29     0    29 Republican
# ℹ 41 more rows
…
