STA 313 - Data wrangling + tidying - II
…
forcats::fct_relevel() in a mutate() is useful for custom ordering of levels of a factor variable

summarize() after group_by() with multiple variables results in a message about the grouping structure of the resulting data frame – the message can be suppressed by defining .groups (e.g., .groups = "drop" or .groups = "keep")

summarize() also lets you get away with being sloppy and not naming your new column, but that’s not recommended!

Rowwise operations

We want to calculate the total number of guests for each booking. Why does the following not work?

hotels |>
  select(adults, children, babies) |>
  mutate(guests = sum(c(adults, children, babies)))

# A tibble: 119,390 × 4
   adults children babies guests
    <dbl>    <dbl>  <dbl>  <dbl>
 1      2        0      0     NA
 2      2        0      0     NA
 3      1        0      0     NA
 4      1        0      0     NA
 5      2        0      0     NA
 6      2        0      0     NA
 7      2        0      0     NA
 8      2        0      0     NA
 9      2        0      0     NA
10      2        0      0     NA
# ℹ 119,380 more rows

Rowwise operations

hotels |>
  select(adults, children, babies) |>
  rowwise() |>
  mutate(guests = sum(c(adults, children, babies))) |>
  filter(adults > 0, children > 0, babies > 0) # to show sum works

# A tibble: 172 × 4
# Rowwise: 
   adults children babies guests
    <dbl>    <dbl>  <dbl>  <dbl>
 1      2        1      1      4
 2      2        1      1      4
 3      2        1      1      4
 4      2        1      1      4
 5      2        1      1      4
 6      2        1      1      4
 7      2        1      1      4
 8      2        2      1      5
 9      2        2      1      5
10      1        2      1      4
# ℹ 162 more rows
…
