STA 313 – HW 2
…
In this exercise you will work with data from contributions to US political parties from foreign-connected PACs. The data is stored in CSV files in the data directory of your repository/project. There are 11 files, each for an election cycle between 2000 and 2024. You can load all of the data at once using the code below.

# get a list of files with "Foreign Connected PAC" in their names
list_of_files <- dir_ls(path = "data", regexp = "Foreign Connected PAC")

# read all files and row bind them
# keeping track of the file name in a new column called year
pac_raw <- read_csv(list_of_files, id = "year")

The ultimate goal of this exercise is to recreate yet another plot. But there is a nontrivial amount of data wrangling and tidying that needs to happen before you can do that. Below are the steps you should follow so that you can obtain the necessary interim objects we will be looking for as we review your work.

a. First, clean the names of the variables in the dataset with a new function from the janitor package: clean_names(). Then clean and transform the data such that you have something like the following at the end. Save the resulting data frame with a the name pac (don’t overwrite pac_raw) and print the top 10 rows of the result.

# A tibble: 2,427 × 6
    year pac_name_affiliate                    country_of_origin parent_company      dems repubs
   <dbl> <chr>                                 <chr>             <chr>              <dbl>  <dbl>
 1  2000 7-Eleven                              Japan             Ito-Yokado          1500   7000
 2  2000 ABB Group                             Switzerland       Asea Brown Boveri  17000  28500
 3  2000 Accenture                             UK                Accenture plc      23000  52984
 4  2000 ACE INA                               UK                ACE Group          12500  26000
 5  2000 Acuson Corp (Siemens AG)              Germany           Siemens AG          2000      0
 6  2000 Adtranz (DaimlerChrysler)             Germany           DaimlerChrysler AG 10000    500
 7  2000 AE Staley Manufacturing (Tate & Lyle) UK                Tate & Lyle        10000  14000
 8  2000 AEGON USA (AEGON NV)                  Netherlands       Aegon NV           10500  47750
 9  2000 AIM Management Group                  UK                AMVESCAP           10000  15000
10  2000 Air Liquide America                   France            L'Air Liquide SA       0      0
# ℹ 2,417 more rows
# ℹ Use `print(n = ...)` to see more rows
…
