STA 313 – Generative art
…
build_art(
  angle = pi * (3 - sqrt(5)),
  points = 100,
  adjustment = 20
)

# A tibble: 100 × 4
       i     t       x       y
   <int> <dbl>   <dbl>   <dbl>
 1     1  22.4 -0.398  -0.918 
 2     2  24.8 -0.327   0.945 
 3     3  27.2  0.879  -0.476 
 4     4  29.6 -0.970  -0.243 
 5     5  32.0  0.551   0.834 
 6     6  34.4  0.157  -0.988 
 7     7  36.8 -0.783   0.622 
 8     8  39.2  0.998   0.0701
 9     9  41.6 -0.688  -0.726 
10    10  44.0  0.0173  1.00  
# ℹ 90 more rows
…
