STA 313 – Themes + axes + annotation
…
Data: SF AQI

sf_files <- fs::dir_ls(here::here("data/san-francisco"))

sf <- read_csv(sf_files, na = c(".", ""))

sf <- sf |>
  janitor::clean_names() |>
  mutate(date = mdy(date)) |>
  arrange(date) |>
  select(date, aqi_value)

sf

# A tibble: 2,557 × 2
   date       aqi_value
   <date>         <dbl>
 1 2016-01-01        32
 2 2016-01-02        37
 3 2016-01-03        45
 4 2016-01-04        33
 5 2016-01-05        27
 6 2016-01-06        39
 7 2016-01-07        39
 8 2016-01-08        31
 9 2016-01-09        20
10 2016-01-10        20
# ℹ 2,547 more rows
…
