STA 313 - Visualizing time series data - I
…
Peek at data

dch_2022 |>
  select(date, aqi_value, site_name, site_id)

# A tibble: 365 × 4
   date       aqi_value site_name     site_id    
   <chr>      <chr>     <chr>         <chr>      
 1 01/01/2022 22        Durham Armory 37-063-0015
 2 01/02/2022 12        Durham Armory 37-063-0015
 3 01/03/2022 10        Durham Armory 37-063-0015
 4 01/04/2022 21        Durham Armory 37-063-0015
 5 01/05/2022 35        Durham Armory 37-063-0015
 6 01/06/2022 29        Durham Armory 37-063-0015
 7 01/07/2022 15        Durham Armory 37-063-0015
 8 01/08/2022 28        Durham Armory 37-063-0015
 9 01/09/2022 28        Durham Armory 37-063-0015
10 01/10/2022 15        Durham Armory 37-063-0015
# ℹ 355 more rows

Transforming date

Using lubridate::mdy():

dch_2022 |>
  mutate(date = mdy(date))

# A tibble: 365 × 11
   date       aqi_value main_pollutant site_name     site_id     source x20_year_high_2000_2019
   <date>     <chr>     <chr>          <chr>         <chr>       <chr>                    <dbl>
 1 2022-01-01 22        PM2.5          Durham Armory 37-063-0015 AQS                        111
 2 2022-01-02 12        PM2.5          Durham Armory 37-063-0015 AQS                         76
 3 2022-01-03 10        PM2.5          Durham Armory 37-063-0015 AQS                         66
 4 2022-01-04 21        PM2.5          Durham Armory 37-063-0015 AQS                         61
 5 2022-01-05 35        PM2.5          Durham Armory 37-063-0015 AQS                         83
 6 2022-01-06 29        PM2.5          Durham Armory 37-063-0015 AQS                         71
 7 2022-01-07 15        PM2.5          Durham Armory 37-063-0015 AQS                         75
 8 2022-01-08 28        PM2.5          Durham Armory 37-063-0015 AQS                         76
 9 2022-01-09 28        PM2.5          Durham Armory 37-063-0015 AQS                         57
10 2022-01-10 15        PM2.5          Durham Armory 37-063-0015 AQS                         71
# ℹ 355 more rows
# ℹ 4 more variables: x20_year_low_2000_2019 <dbl>, x5_year_average_2015_2019 <dbl>,
#   date_of_20_year_high <chr>, date_of_20_year_low <chr>

Transforming AQI values

What does this warning mean?

dch_2022 |>
  mutate(aqi_value = as.numeric(aqi_value))

# A tibble: 365 × 11
  date       aqi_value main_pollutant site_name     site_id     source x20_year_high_2000_2019
  <chr>          <dbl> <chr>          <chr>         <chr>       <chr>                    <dbl>
1 01/01/2022        22 PM2.5          Durham Armory 37-063-0015 AQS                        111
2 01/02/2022        12 PM2.5          Durham Armory 37-063-0015 AQS                         76
3 01/03/2022        10 PM2.5          Durham Armory 37-063-0015 AQS                         66
# ℹ 362 more rows
# ℹ 4 more variables: x20_year_low_2000_2019 <dbl>, x5_year_average_2015_2019 <dbl>,
#   date_of_20_year_high <chr>, date_of_20_year_low <chr>
…
Data cleaning

dch_2022 <- dch_2022 |>
  janitor::clean_names() |>
  mutate(date = mdy(date))

dch_2022

# A tibble: 365 × 11
   date       aqi_value main_pollutant site_name     site_id     source x20_year_high_2000_2019
   <date>         <dbl> <chr>          <chr>         <chr>       <chr>                    <dbl>
 1 2022-01-01        22 PM2.5          Durham Armory 37-063-0015 AQS                        111
 2 2022-01-02        12 PM2.5          Durham Armory 37-063-0015 AQS                         76
 3 2022-01-03        10 PM2.5          Durham Armory 37-063-0015 AQS                         66
 4 2022-01-04        21 PM2.5          Durham Armory 37-063-0015 AQS                         61
 5 2022-01-05        35 PM2.5          Durham Armory 37-063-0015 AQS                         83
 6 2022-01-06        29 PM2.5          Durham Armory 37-063-0015 AQS                         71
 7 2022-01-07        15 PM2.5          Durham Armory 37-063-0015 AQS                         75
 8 2022-01-08        28 PM2.5          Durham Armory 37-063-0015 AQS                         76
 9 2022-01-09        28 PM2.5          Durham Armory 37-063-0015 AQS                         57
10 2022-01-10        15 PM2.5          Durham Armory 37-063-0015 AQS                         71
# ℹ 355 more rows
# ℹ 4 more variables: x20_year_low_2000_2019 <dbl>, x5_year_average_2015_2019 <dbl>,
#   date_of_20_year_high <chr>, date_of_20_year_low <chr>
…
